Set # 684 
SkyShatter Set (Vote Gear) 
ID    	Ele 	Enhance     	DispID  	Type
31017	0		0				45668		Breastplate
31008	0 		0				45670		Gauntlets
31014	0 		0				45669		Headguard
31020	0		0				45671		Legguards
34542	0		0				48358		Cord
34437	0		0				48325		Bands
34566	0		0				48370		Greaves
31023	0		0				45734		Mantle
